Digital-Systems-Design-MIPS-Processor/MIPS_System_Students_Part_C_loop/PWM/modules/counter/simulation/qsim/counter.msim.vcd
$comment
	File created using the following command:
		vcd file counter.msim.vcd -direction
$end
$date
	Tue Mar 12 12:47:22 2024
$end
$version
	ModelSim Version 10.1d
$end
$timescale
	1ps
$end
$scope module counter_vlg_vec_tst $end
$var reg 1 ! clock $end
$var reg 1 " reset $end
$var wire 1 # tick [7] $end
$var wire 1 $ tick [6] $end
$var wire 1 % tick [5] $end
$var wire 1 & tick [4] $end
$var wire 1 ' tick [3] $end
$var wire 1 ( tick [2] $end
$var wire 1 ) tick [1] $end
$var wire 1 * tick [0] $end
$var wire 1 + sampler $end
$scope module i1 $end
$var wire 1 , gnd $end
$var wire 1 - vcc $end
$var wire 1 . unknown $end
$var tri1 1 / devclrn $end
$var tri1 1 0 devpor $end
$var tri1 1 1 devoe $end
$var wire 1 2 reset~combout $end
$var wire 1 3 clock~combout $end
$var wire 1 4 clock~clkctrl_outclk $end
$var wire 1 5 p_counter[0]~8_combout $end
$var wire 1 6 p_counter[0]~9 $end
$var wire 1 7 p_counter[1]~11_combout $end
$var wire 1 8 p_counter[1]~12 $end
$var wire 1 9 p_counter[2]~13_combout $end
$var wire 1 : Equal0~0_combout $end
$var wire 1 ; p_counter[2]~14 $end
$var wire 1 < p_counter[3]~16 $end
$var wire 1 = p_counter[4]~17_combout $end
$var wire 1 > p_counter[4]~18 $end
$var wire 1 ? p_counter[5]~20 $end
$var wire 1 @ p_counter[6]~22 $end
$var wire 1 A p_counter[7]~23_combout $end
$var wire 1 B p_counter[6]~21_combout $end
$var wire 1 C Equal0~1_combout $end
$var wire 1 D p_counter[0]~10_combout $end
$var wire 1 E p_counter[3]~15_combout $end
$var wire 1 F p_counter[5]~19_combout $end
$var wire 1 G p_counter [7] $end
$var wire 1 H p_counter [6] $end
$var wire 1 I p_counter [5] $end
$var wire 1 J p_counter [4] $end
$var wire 1 K p_counter [3] $end
$var wire 1 L p_counter [2] $end
$var wire 1 M p_counter [1] $end
$var wire 1 N p_counter [0] $end
$upscope $end
$upscope $end
$enddefinitions $end
#0
$dumpvars
0!
0"
0*
0)
0(
0'
0&
0%
0$
0#
x+
0,
1-
x.
1/
10
11
02
03
04
15
06
07
18
09
1:
0;
1<
0=
0>
1?
0@
0A
0B
1C
1D
0E
0F
0N
0M
0L
0K
0J
0I
0H
0G
$end
#10000
1!
13
14
0+
#20000
0!
03
04
1+
#30000
1!
13
14
0+
#40000
0!
03
04
1+
#50000
1!
13
14
0+
#60000
0!
03
04
1+
#70000
1!
13
14
0+
#80000
0!
03
04
1+
#90000
1!
13
14
0+
#100000
0!
03
04
1+
#110000
1!
13
14
0+
#120000
0!
03
04
1+
#130000
1!
13
14
0+
#140000
0!
03
04
1+
#150000
1!
13
14
0+
#160000
0!
03
04
1+
#170000
1!
13
14
0+
#180000
0!
03
04
1+
#190000
1!
13
14
0+
#200000
0!
03
04
1+
#210000
1!
13
14
0+
#220000
0!
03
04
1+
#230000
1!
13
14
0+
#240000
0!
03
04
1+
#250000
1!
13
14
0+
#260000
0!
03
04
1+
#270000
1!
13
14
0+
#280000
0!
03
04
1+
#290000
1!
13
14
0+
#300000
0!
03
04
1+
#310000
1!
13
14
0+
#320000
0!
03
04
1+
#330000
1!
13
14
0+
#340000
0!
03
04
1+
#350000
1!
13
14
0+
#360000
0!
03
04
1+
#370000
1!
13
14
0+
#380000
0!
03
04
1+
#390000
1!
13
14
0+
#400000
0!
03
04
1+
#410000
1!
13
14
0+
#420000
0!
03
04
1+
#430000
1!
13
14
0+
#440000
0!
03
04
1+
#450000
1!
13
14
0+
#460000
0!
03
04
1+
#470000
1!
13
14
0+
#480000
0!
03
04
1+
#490000
1!
13
14
0+
#500000
0!
03
04
1+
#510000
1!
13
14
0+
#520000
0!
03
04
1+
#530000
1!
13
14
0+
#540000
0!
03
04
1+
#550000
1!
13
14
0+
#560000
0!
03
04
1+
#570000
1!
13
14
0+
#580000
0!
03
04
1+
#590000
1!
13
14
0+
#600000
0!
03
04
1+
#610000
1!
13
14
0+
#620000
0!
03
04
1+
#630000
1!
13
14
0+
#640000
0!
03
04
1+
#650000
1!
13
14
0+
#660000
0!
03
04
1+
#670000
1!
13
14
0+
#680000
0!
03
04
1+
#690000
1!
13
14
0+
#700000
0!
03
04
1+
#710000
1!
13
14
0+
#720000
0!
03
04
1+
#730000
1!
13
14
0+
#740000
0!
03
04
1+
#750000
1!
13
14
0+
#760000
0!
03
04
1+
#770000
1!
13
14
0+
#780000
0!
03
04
1+
#790000
1!
13
14
0+
#800000
0!
03
04
1+
#810000
1!
13
14
0+
#820000
0!
03
04
1+
#830000
1!
13
14
0+
#840000
0!
03
04
1+
#850000
1!
13
14
0+
#860000
0!
03
04
1+
#870000
1!
13
14
0+
#880000
0!
03
04
1+
#890000
1!
13
14
0+
#900000
0!
03
04
1+
#910000
1!
13
14
0+
#920000
0!
03
04
1+
#930000
1!
13
14
0+
#940000
0!
03
04
1+
#950000
1!
13
14
0+
#960000
0!
03
04
1+
#970000
1!
13
14
0+
#980000
0!
03
04
1+
#990000
1!
13
14
0+
