Digital-Systems-Design-MIPS-Processor/MIPS_System_Students_Part_C_loop/PWM/simulation/qsim/PWM.msim.vcd
$comment
	File created using the following command:
		vcd file PWM.msim.vcd -direction
$end
$date
	Tue Mar 12 13:38:56 2024
$end
$version
	ModelSim Version 10.1d
$end
$timescale
	1ps
$end
$scope module PWM_vlg_vec_tst $end
$var reg 12 ! Addr [11:0] $end
$var reg 1 " CS_N $end
$var reg 8 # DataIn [7:0] $end
$var reg 1 $ WR_N $end
$var reg 1 % clk $end
$var reg 1 & reset $end
$var wire 1 ' LEDR [17] $end
$var wire 1 ( LEDR [16] $end
$var wire 1 ) LEDR [15] $end
$var wire 1 * LEDR [14] $end
$var wire 1 + LEDR [13] $end
$var wire 1 , LEDR [12] $end
$var wire 1 - LEDR [11] $end
$var wire 1 . LEDR [10] $end
$var wire 1 / LEDR [9] $end
$var wire 1 0 LEDR [8] $end
$var wire 1 1 LEDR [7] $end
$var wire 1 2 LEDR [6] $end
$var wire 1 3 LEDR [5] $end
$var wire 1 4 LEDR [4] $end
$var wire 1 5 LEDR [3] $end
$var wire 1 6 LEDR [2] $end
$var wire 1 7 LEDR [1] $end
$var wire 1 8 LEDR [0] $end
$var wire 1 9 sampler $end
$scope module i1 $end
$var wire 1 : gnd $end
$var wire 1 ; vcc $end
$var wire 1 < unknown $end
$var tri1 1 = devclrn $end
$var tri1 1 > devpor $end
$var tri1 1 ? devoe $end
$var wire 1 @ pwm_register[7]~1_combout $end
$var wire 1 A CS_N~combout $end
$var wire 1 B clk~combout $end
$var wire 1 C clk~clkctrl_outclk $end
$var wire 1 D c|p_counter[0]~8_combout $end
$var wire 1 E c|p_counter[3]~14_combout $end
$var wire 1 F c|p_counter[5]~18_combout $end
$var wire 1 G c|Equal0~1_combout $end
$var wire 1 H reset~combout $end
$var wire 1 I c|Equal0~0_combout $end
$var wire 1 J c|p_counter[7]~24_combout $end
$var wire 1 K c|p_counter[0]~9 $end
$var wire 1 L c|p_counter[1]~10_combout $end
$var wire 1 M c|p_counter[1]~11 $end
$var wire 1 N c|p_counter[2]~12_combout $end
$var wire 1 O c|p_counter[2]~13 $end
$var wire 1 P c|p_counter[3]~15 $end
$var wire 1 Q c|p_counter[4]~16_combout $end
$var wire 1 R c|p_counter[4]~17 $end
$var wire 1 S c|p_counter[5]~19 $end
$var wire 1 T c|p_counter[6]~21 $end
$var wire 1 U c|p_counter[7]~22_combout $end
$var wire 1 V pwm_register[7]~feeder_combout $end
$var wire 1 W pwm_register[7]~2_combout $end
$var wire 1 X WR_N~combout $end
$var wire 1 Y pwm_register[7]~0_combout $end
$var wire 1 Z pwm_register[7]~3_combout $end
$var wire 1 [ pwm_register[7]~4_combout $end
$var wire 1 \ c|p_counter[6]~20_combout $end
$var wire 1 ] LessThan0~1_cout $end
$var wire 1 ^ LessThan0~3_cout $end
$var wire 1 _ LessThan0~5_cout $end
$var wire 1 ` LessThan0~7_cout $end
$var wire 1 a LessThan0~9_cout $end
$var wire 1 b LessThan0~11_cout $end
$var wire 1 c LessThan0~13_cout $end
$var wire 1 d LessThan0~14_combout $end
$var wire 1 e f|q~regout $end
$var wire 1 f DataIn~combout [7] $end
$var wire 1 g DataIn~combout [6] $end
$var wire 1 h DataIn~combout [5] $end
$var wire 1 i DataIn~combout [4] $end
$var wire 1 j DataIn~combout [3] $end
$var wire 1 k DataIn~combout [2] $end
$var wire 1 l DataIn~combout [1] $end
$var wire 1 m DataIn~combout [0] $end
$var wire 1 n Addr~combout [11] $end
$var wire 1 o Addr~combout [10] $end
$var wire 1 p Addr~combout [9] $end
$var wire 1 q Addr~combout [8] $end
$var wire 1 r Addr~combout [7] $end
$var wire 1 s Addr~combout [6] $end
$var wire 1 t Addr~combout [5] $end
$var wire 1 u Addr~combout [4] $end
$var wire 1 v Addr~combout [3] $end
$var wire 1 w Addr~combout [2] $end
$var wire 1 x Addr~combout [1] $end
$var wire 1 y Addr~combout [0] $end
$var wire 1 z c|p_counter [7] $end
$var wire 1 { c|p_counter [6] $end
$var wire 1 | c|p_counter [5] $end
$var wire 1 } c|p_counter [4] $end
$var wire 1 ~ c|p_counter [3] $end
$var wire 1 !! c|p_counter [2] $end
$var wire 1 "! c|p_counter [1] $end
$var wire 1 #! c|p_counter [0] $end
$var wire 1 $! pwm_register [7] $end
$var wire 1 %! pwm_register [6] $end
$var wire 1 &! pwm_register [5] $end
$var wire 1 '! pwm_register [4] $end
$var wire 1 (! pwm_register [3] $end
$var wire 1 )! pwm_register [2] $end
$var wire 1 *! pwm_register [1] $end
$var wire 1 +! pwm_register [0] $end
$upscope $end
$upscope $end
$enddefinitions $end
#0
$dumpvars
b110000 !
0"
b11111111 #
0$
0%
1&
08
07
06
05
04
03
02
01
00
0/
0.
0-
0,
0+
0*
0)
0(
0'
x9
0:
1;
x<
1=
1>
1?
1@
0A
0B
0C
1D
0E
0F
1G
1H
1I
0J
0K
0L
1M
0N
0O
1P
0Q
0R
1S
0T
0U
1V
1W
0X
0Y
1Z
0[
0\
0]
1^
0_
1`
0a
1b
0c
0d
0e
1m
1l
1k
1j
1i
1h
1g
1f
0y
0x
0w
0v
1u
1t
0s
0r
0q
0p
0o
0n
0#!
0"!
0!!
0~
0}
0|
0{
0z
0+!
0*!
0)!
0(!
0'!
0&!
0%!
0$!
$end
#10000
1%
1B
1C
09
1#!
1]
1K
0D
0^
1L
1_
0`
1a
0b
1c
1d
#20000
0%
0B
0C
19
#30000
1%
1B
1C
09
1"!
0#!
0M
0L
0]
0K
1D
1N
1M
1L
0N
#40000
0%
0B
0C
19
#50000
1%
1B
1C
09
1#!
1]
1K
0D
0M
0L
1N
#60000
0%
0B
0C
19
#70000
1%
1B
1C
09
1!!
0"!
0#!
1O
0N
1M
1L
0]
0K
1D
1E
0O
1N
1^
0L
0E
#80000
0%
0B
0C
19
#90000
1%
1B
1C
09
1#!
1]
1K
0D
0^
1L
#100000
0%
0B
0C
19
#110000
1%
1B
1C
09
1"!
0#!
0M
0L
0]
0K
1D
1O
0N
1M
1L
1E
0O
1N
0E
#120000
0%
0B
0C
19
#130000
1%
1B
1C
09
1#!
1]
1K
0D
0M
0L
1O
0N
1E
#140000
0%
0B
0C
19
#150000
1%
1B
1C
09
0!!
0"!
0#!
1~
0O
1N
1M
1L
0]
0K
1D
0P
0E
1P
1E
0N
1^
0L
1Q
0Q
0_
#160000
0%
0B
0C
19
#170000
1%
1B
1C
09
1#!
1]
1K
0D
0^
1L
1_
#180000
0%
0B
0C
19
#190000
1%
1B
1C
09
1"!
0#!
0M
0L
0]
0K
1D
1N
1M
1L
0N
#200000
0%
0B
0C
19
#210000
1%
1B
1C
09
1#!
1]
1K
0D
0M
0L
1N
#220000
0%
0B
0C
19
#230000
1%
1B
1C
09
1!!
0"!
0#!
1O
0N
1M
1L
0]
0K
1D
0P
0E
0O
1N
1^
0L
1Q
1P
1E
0Q
#240000
0%
0B
0C
19
#250000
1%
1B
1C
09
1#!
1]
1K
0D
0^
1L
#260000
0%
0B
0C
19
#270000
1%
1B
1C
09
1"!
0#!
0M
0L
0]
0K
1D
1O
0N
1M
1L
0P
0E
0O
1N
1Q
1P
1E
0Q
#280000
0%
0B
0C
19
#290000
1%
1B
1C
09
1#!
1]
1K
0D
0M
0L
1O
0N
0P
0E
1Q
#300000
0%
0B
0C
19
#310000
1%
1B
1C
09
1}
0!!
0"!
0#!
0~
1R
0Q
0O
1N
1M
1L
0]
0K
1D
1P
1E
1F
0E
0N
1^
0L
0R
1Q
0_
0F
1`
#320000
0%
0B
0C
19
#330000
1%
1B
1C
09
1#!
1]
1K
0D
0^
1L
1_
0`
#340000
0%
0B
0C
19
#350000
1%
1B
1C
09
1"!
0#!
0M
0L
0]
0K
1D
1N
1M
1L
0N
#360000
0%
0B
0C
19
#370000
1%
1B
1C
09
1#!
1]
1K
0D
0M
0L
1N
#380000
0%
0B
0C
19
#390000
1%
1B
1C
09
1!!
0"!
0#!
1O
0N
1M
1L
0]
0K
1D
1E
0O
1N
1^
0L
0E
#400000
b1111111 #
b111111 #
b11111 #
b1111 #
b111 #
b11 #
b1 #
b0 #
0%
0m
0l
0k
0j
0i
0h
0g
0f
0B
0C
19
0V
#410000
1%
1B
1C
09
1#!
1]
1K
0D
0^
1L
#420000
0%
0B
0C
19
#430000
1%
1B
1C
09
1"!
0#!
0M
0L
0]
0K
1D
1O
0N
1M
1L
1E
0O
1N
0E
#440000
0%
0B
0C
19
#450000
1%
1B
1C
09
1#!
1]
1K
0D
0M
0L
1O
0N
1E
#460000
0%
0B
0C
19
#470000
1%
1B
1C
09
0!!
0"!
0#!
1~
0O
1N
1M
1L
0]
0K
1D
0P
0E
1P
1E
0N
1^
0L
1R
0Q
0R
1Q
0_
1F
0F
#480000
0%
0B
0C
19
#490000
1%
1B
1C
09
1#!
1]
1K
0D
0^
1L
1_
#500000
0%
0B
0C
19
#510000
1%
1B
1C
09
1"!
0#!
0M
0L
0]
0K
1D
1N
1M
1L
0N
#520000
0%
0B
0C
19
#530000
1%
1B
1C
09
1#!
1]
1K
0D
0M
0L
1N
#540000
0%
0B
0C
19
#550000
1%
1B
1C
09
1!!
0"!
0#!
1O
0N
1M
1L
0]
0K
1D
0P
0E
0O
1N
1^
0L
1R
0Q
1P
1E
1F
0R
1Q
0F
#560000
0%
0B
0C
19
#570000
1%
1B
1C
09
1#!
1]
1K
0D
0^
1L
#580000
0%
0B
0C
19
#590000
1%
1B
1C
09
1"!
0#!
0M
0L
0]
0K
1D
1O
0N
1M
1L
0P
0E
0O
1N
1R
0Q
1P
1E
1F
0R
1Q
0F
#600000
0%
0B
0C
19
#610000
1%
1B
1C
09
1#!
1]
1K
0D
0M
0L
1O
0N
0P
0E
1R
0Q
1F
#620000
0%
0B
0C
19
#630000
1%
1B
1C
09
0}
0!!
0"!
0#!
1|
0~
0R
1Q
0O
1N
1M
1L
0]
0K
1D
0S
0F
1P
1E
1S
1F
0E
0N
1^
0L
1\
0Q
0\
0_
1`
0a
#640000
0%
0B
0C
19
#650000
1%
1B
1C
09
1#!
1]
1K
0D
0^
1L
1_
0`
1a
#660000
0%
0B
0C
19
#670000
1%
1B
1C
09
1"!
0#!
0M
0L
0]
0K
1D
1N
1M
1L
0N
#680000
0%
0B
0C
19
#690000
1%
1B
1C
09
1#!
1]
1K
0D
0M
0L
1N
#700000
0%
0B
0C
19
#710000
1%
1B
1C
09
1!!
0"!
0#!
1O
0N
1M
1L
0]
0K
1D
1E
0O
1N
1^
0L
0E
#720000
0%
0B
0C
19
#730000
1%
1B
1C
09
1#!
1]
1K
0D
0^
1L
#740000
0%
0B
0C
19
#750000
1%
1B
1C
09
1"!
0#!
0M
0L
0]
0K
1D
1O
0N
1M
1L
1E
0O
1N
0E
#760000
0%
0B
0C
19
#770000
1%
1B
1C
09
1#!
1]
1K
0D
0M
0L
1O
0N
1E
#780000
0%
0B
0C
19
#790000
1%
1B
1C
09
0!!
0"!
0#!
1~
0O
1N
1M
1L
0]
0K
1D
0P
0E
1P
1E
0N
1^
0L
1Q
0Q
0_
#800000
0%
0B
0C
19
#810000
1%
1B
1C
09
1#!
1]
1K
0D
0^
1L
1_
#820000
0%
0B
0C
19
#830000
1%
1B
1C
09
1"!
0#!
0M
0L
0]
0K
1D
1N
1M
1L
0N
#840000
0%
0B
0C
19
#850000
1%
1B
1C
09
1#!
1]
1K
0D
0M
0L
1N
#860000
0%
0B
0C
19
#870000
1%
1B
1C
09
1!!
0"!
0#!
1O
0N
1M
1L
0]
0K
1D
0P
0E
0O
1N
1^
0L
1Q
1P
1E
0Q
#880000
0%
0B
0C
19
#890000
1%
1B
1C
09
1#!
1]
1K
0D
0^
1L
#900000
0%
0B
0C
19
#910000
1%
1B
1C
09
1"!
0#!
0M
0L
0]
0K
1D
1O
0N
1M
1L
0P
0E
0O
1N
1Q
1P
1E
0Q
#920000
0%
0B
0C
19
#930000
1%
1B
1C
09
1#!
1]
1K
0D
0M
0L
1O
0N
0P
0E
1Q
#940000
0%
0B
0C
19
#950000
1%
1B
1C
09
1}
0!!
0"!
0#!
0~
1R
0Q
0O
1N
1M
1L
0]
0K
1D
1P
1E
0S
0F
0E
0N
1^
0L
0R
1Q
1\
0_
1S
1F
1`
0\
#960000
0%
0B
0C
19
#970000
1%
1B
1C
09
1#!
1]
1K
0D
0^
1L
1_
0`
#980000
0%
0B
0C
19
#990000
1%
1B
1C
09
1"!
0#!
0M
0L
0]
0K
1D
1N
1M
1L
0N
