Digital-Systems-Design-MIPS-Processor/MIPS_System_Students_Part_C_loop/PWM/modules/compare/modules/compare_4/simulation/qsim/compare_4.msim.vcd
$comment
	File created using the following command:
		vcd file compare_4.msim.vcd -direction
$end
$date
	Tue Mar 12 13:15:57 2024
$end
$version
	ModelSim Version 10.1d
$end
$timescale
	1ps
$end
$scope module compare_4_vlg_vec_tst $end
$var reg 4 ! A [3:0] $end
$var reg 4 " B [3:0] $end
$var wire 1 # A_equal_B $end
$var wire 1 $ A_greater_B $end
$var wire 1 % A_less_B $end
$var wire 1 & sampler $end
$scope module i1 $end
$var wire 1 ' gnd $end
$var wire 1 ( vcc $end
$var wire 1 ) unknown $end
$var tri1 1 * devclrn $end
$var tri1 1 + devpor $end
$var tri1 1 , devoe $end
$var wire 1 - A_greater_B~0_combout $end
$var wire 1 . A_less_B~0_combout $end
$var wire 1 / A_less_B~1_combout $end
$var wire 1 0 A_less_B~2_combout $end
$var wire 1 1 A_equal_B~0_combout $end
$var wire 1 2 A_equal_B~1_combout $end
$var wire 1 3 A_greater_B~1_combout $end
$var wire 1 4 A_greater_B~2_combout $end
$var wire 1 5 A_greater_B~3_combout $end
$var wire 1 6 B~combout [3] $end
$var wire 1 7 B~combout [2] $end
$var wire 1 8 B~combout [1] $end
$var wire 1 9 B~combout [0] $end
$var wire 1 : A~combout [3] $end
$var wire 1 ; A~combout [2] $end
$var wire 1 < A~combout [1] $end
$var wire 1 = A~combout [0] $end
$upscope $end
$upscope $end
$enddefinitions $end
#0
$dumpvars
b0 !
b1 "
0#
0$
1%
x&
0'
1(
x)
1*
1+
1,
1-
0.
1/
10
11
12
03
04
05
19
08
07
06
0=
0<
0;
0:
$end
#20000
b1 !
b11 "
b10 "
09
18
1=
0&
#40000
b11 !
b10 !
b11 "
19
0=
1<
1&
#60000
b111 "
b101 "
b11 !
b100 "
1=
09
08
17
0&
14
0/
1.
0-
#80000
b111 !
b101 !
b100 !
b101 "
19
0=
0<
1;
1&
04
1/
0.
1-
#100000
b111 "
b101 !
b110 "
1=
09
18
0&
#120000
b111 !
b110 !
b111 "
19
0=
1<
1&
#140000
b1111 "
b1011 "
b1001 "
b111 !
b1000 "
1=
09
08
07
16
0&
14
0/
1.
0-
#160000
b1111 !
b1011 !
b1001 !
b1000 !
b1001 "
19
0=
0<
0;
1:
1&
04
1/
0.
1-
#180000
b1011 "
b1001 !
b1010 "
1=
09
18
0&
#200000
b1011 !
b1010 !
b1011 "
19
0=
1<
1&
#220000
b1111 "
b1101 "
b1011 !
b1100 "
1=
09
08
17
0&
14
0/
1.
0-
#240000
b1111 !
b1101 !
b1100 !
b1101 "
19
0=
0<
1;
1&
04
1/
0.
1-
#260000
b1111 "
b1101 !
b1110 "
1=
09
18
0&
#280000
b1111 !
b1110 !
b1111 "
19
0=
1<
1&
#300000
b111 "
b11 "
b1 "
b1111 !
b0 "
1=
09
08
07
06
0&
14
0/
13
0-
15
00
1$
0%
#320000
b111 !
b11 !
b1 !
b1000 "
b1100 "
b1110 "
b0 !
b1111 "
19
18
17
16
0=
0<
0;
0:
1&
04
1/
03
1.
05
10
0$
1%
#340000
b111 "
b11 "
b1 "
b1 !
b0 "
1=
09
08
07
06
0&
14
0/
0.
1-
15
00
1$
0%
#360000
b11 !
b10 !
b1 "
19
0=
1<
1&
#380000
b11 "
b11 !
b10 "
1=
09
18
0&
#400000
b111 !
b101 !
b100 !
b11 "
19
0=
0<
1;
1&
04
1/
13
0-
#420000
b111 "
b101 "
b101 !
b100 "
1=
09
08
17
0&
14
0/
03
1-
#440000
b111 !
b110 !
b101 "
19
0=
1<
1&
#460000
b111 "
b111 !
b110 "
1=
09
18
0&
#480000
b1111 !
b1011 !
b1001 !
b1000 !
b111 "
19
0=
0<
0;
1:
1&
04
1/
13
0-
#500000
b1111 "
b1011 "
b1001 "
b1001 !
b1000 "
1=
09
08
07
16
0&
14
0/
03
1-
#520000
b1011 !
b1010 !
b1001 "
19
0=
1<
1&
#540000
b1011 "
b1011 !
b1010 "
1=
09
18
0&
#560000
b1111 !
b1101 !
b1100 !
b1011 "
19
0=
0<
1;
1&
04
1/
13
0-
#580000
b1111 "
b1101 "
b1101 !
b1100 "
1=
09
08
17
0&
14
0/
03
1-
#600000
b1111 !
b1110 !
b1101 "
19
0=
1<
1&
#620000
b1111 "
b1111 !
b1110 "
1=
09
18
0&
#640000
b111 !
b110 "
b11 !
b10 "
b1 !
b0 "
b0 !
08
07
06
0=
0<
0;
0:
1&
04
01
05
02
0$
1#
#660000
b1 "
b1 !
1=
19
0&
#680000
b11 !
b11 "
b10 "
b10 !
09
18
0=
1<
1&
#700000
b11 "
b11 !
1=
19
0&
#720000
b111 !
b111 "
b101 !
b101 "
b100 "
b100 !
09
08
17
0=
0<
1;
1&
#740000
b101 "
b101 !
1=
19
0&
#760000
b111 !
b111 "
b110 "
b110 !
09
18
0=
1<
1&
#780000
b111 "
b111 !
1=
19
0&
#800000
b1111 !
b1111 "
b1011 !
b1011 "
b1001 !
b1001 "
b1000 "
b1000 !
09
08
07
16
0=
0<
0;
1:
1&
#820000
b1001 "
b1001 !
1=
19
0&
#840000
b1011 !
b1011 "
b1010 "
b1010 !
09
18
0=
1<
1&
#860000
b1011 "
b1011 !
1=
19
0&
#880000
b1111 !
b1111 "
b1101 !
b1101 "
b1100 "
b1100 !
09
08
17
0=
0<
1;
1&
#900000
b1101 "
b1101 !
1=
19
0&
#920000
b1111 !
b1111 "
b1110 "
b1110 !
09
18
0=
1<
1&
#940000
b1111 "
b1111 !
1=
19
0&
#960000
b111 !
b111 "
b11 !
b11 "
b1 !
b1 "
b0 "
b0 !
09
08
07
06
0=
0<
0;
0:
1&
