Digital-Systems-Design-MIPS-Processor/MIPS_System_Students_Part_C_loop/PWM/modules/compare/modules/compare_2/simulation/qsim/compare_2.msim.vcd
$comment
	File created using the following command:
		vcd file compare_2.msim.vcd -direction
$end
$date
	Tue Mar 12 13:00:27 2024
$end
$version
	ModelSim Version 10.1d
$end
$timescale
	1ps
$end
$scope module compare_2_vlg_vec_tst $end
$var reg 2 ! A [1:0] $end
$var reg 2 " B [1:0] $end
$var wire 1 # A_equal_B $end
$var wire 1 $ A_greater_B $end
$var wire 1 % A_less_B $end
$var wire 1 & sampler $end
$scope module i1 $end
$var wire 1 ' gnd $end
$var wire 1 ( vcc $end
$var wire 1 ) unknown $end
$var tri1 1 * devclrn $end
$var tri1 1 + devpor $end
$var tri1 1 , devoe $end
$var wire 1 - A_less_B~0_combout $end
$var wire 1 . u3~combout $end
$var wire 1 / A_greater_B~0_combout $end
$var wire 1 0 B~combout [1] $end
$var wire 1 1 B~combout [0] $end
$var wire 1 2 A~combout [1] $end
$var wire 1 3 A~combout [0] $end
$upscope $end
$upscope $end
$enddefinitions $end
#0
$dumpvars
b0 !
b11 "
0#
0$
1%
x&
0'
1(
x)
1*
1+
1,
1-
1.
0/
11
10
03
02
$end
#40000
b1 !
b1 "
b0 "
01
00
13
0&
1/
0-
1$
0%
#80000
b11 !
b10 !
b1 "
11
03
12
1&
#120000
b11 "
b11 !
b10 "
13
01
10
0&
#160000
b1 !
b0 "
b0 !
b1 "
11
00
03
02
1&
0/
1-
0$
1%
#200000
b11 "
b1 !
b10 "
13
01
10
0&
#240000
b11 !
b10 !
b11 "
11
03
12
1&
#280000
b1 "
b11 !
b0 "
13
01
00
0&
1/
0-
1$
0%
#320000
b1 !
b0 !
03
02
1&
0/
0.
0$
1#
#360000
b1 "
b1 !
13
11
0&
#400000
b11 "
b11 !
b10 "
b10 !
03
12
01
10
1&
#440000
b11 "
b11 !
13
11
0&
#480000
b1 "
b1 !
b0 "
b0 !
03
02
01
00
1&
